…
## Are there differences in activity patterns between weekdays and weekends?
For this part the weekdays() function may be of some help here. Use the dataset with the filled-in missing values for this part.

### Create a new factor variable in the dataset with two levels – “weekday” and “weekend” indicating whether a given date is a weekday or weekend day.


```r
activity_df_inputed %>%
    mutate(week_day = weekdays(date)) %>%
    mutate(week_day_category = if_else(week_day %in% c("Saturday","Sunday"), "weekend", "weekday")) %>%
    mutate(week_day_category = as_factor(week_day_category))
```

```
## # A tibble: 17,568 x 6
## # Groups:   interval [288]
##    steps date       interval steps_inputed week_day week_day_category
##    <dbl> <date>        <dbl>         <dbl> <chr>    <fct>            
##  1    NA 2012-10-01        0        1.72   Monday   weekday          
##  2    NA 2012-10-01        5        0.340  Monday   weekday          
##  3    NA 2012-10-01       10        0.132  Monday   weekday          
##  4    NA 2012-10-01       15        0.151  Monday   weekday          
##  5    NA 2012-10-01       20        0.0755 Monday   weekday          
##  6    NA 2012-10-01       25        2.09   Monday   weekday          
##  7    NA 2012-10-01       30        0.528  Monday   weekday          
##  8    NA 2012-10-01       35        0.868  Monday   weekday          
##  9    NA 2012-10-01       40        0      Monday   weekday          
## 10    NA 2012-10-01       45        1.47   Monday   weekday          
## # ... with 17,558 more rows
```
…
